{
 "papers": [
    {
      "id": "VR1",
      "name": "Verbal Reasoning Assessment 1",
      "subject": "vr",
      "total": 80,
      "time": 50,
      "questions": [
        {
          "number": 1,
          "textExtract": "",
          "primaryInstruction": "The number codes for three of these four words are listed in a random order. Work out the code to answer the questions.", 
          "secondaryInstruction": "Find the code for the word DRAM.",
          "image": "src/assets/exams/NVR1/1.jpg",
          "imageMobile": "src/assets/exams/NVR1/1.jpg",
          "type": "text",
          "options": []
        },
        {
          "number": 2,
          "textExtract": "",
          "primaryInstruction": "The number codes for three of these four words are listed in a random order. Work out the code to answer the questions.", 
          "secondaryInstruction": "Find the code for the word REAM.",
          "image": "src/assets/exams/NVR1/1.jpg",
          "imageMobile": "src/assets/exams/NVR1/1.jpg",
          "type": "text",
          "options": []
        },
        {
          "number": 3,
          "textExtract": "",
          "primaryInstruction": "The number codes for three of these four words are listed in a random order. Work out the code to answer the questions.", 
          "secondaryInstruction": "Find the word that has the number code 6234.",
          "image": "src/assets/exams/NVR1/1.jpg",
          "imageMobile": "src/assets/exams/NVR1/1.jpg",
          "type": "text",
          "options": []
        }
      ],
      "answers": [
        {
          "number": 1,
          "answer": "1435",
          "explanation": "Start by looking at the common letters in each word. A is the most obvious as it's in each word. Notice the number that appears in all of the codes, which is 3 and pair it to each word. <br>You can then start looking for other commmon letters. Let's use R, which can either be 4 or 2, as the solution is either 1435 or 5231 (it can't be 6342 as the letter A (3) isn't in the correct position.<br> We can use the central code of 6342 to understand that the word will look like .AR. or .A.R and the only suitable match would be WARE. Therefore, R would be 4.<br> We can therefore tell the answer is 1435."
        },
        {
          "number": 2,
          "answer": "4235",
          "explanation": "Since we know from the previous question DRAM = 1435. Therefore, R=4 A=3 and M=5. The only letter we need to find therefore is E. We can understand from the previous question that WARE = 6342, this means that E would be 2, and it can be checked by applying it to other words.<br> The answer therefore is 4235."
        },
        {
          "number": 3,
          "answer": "WEAR",
          "explanation": "Since we know from the previous questions, DRAM = 1435, REAM 4235. The only number we are missing therefore is 6. We also understand that WARE = 6342, therefore 6 = W. This makes the final word 6=W, 2=E, 3=A, 4=R = WEAR."
        }
      ]
    },
    {
      "id": "NVR1",
      "name": "Non-Verbal Reasoning Assessment 1",
      "subject": "n-vr",
      "total": 56,
      "time": 30,
      "questions": [
        {
          "number": 1,
          "textExtract": "",
          "primaryInstruction": "For each question below there are two figures that are like each other in some way. Find which of the five figures on the right is most like the two figures on the left.", 
          "secondaryInstruction": "Choose one:",
          "image": "src/assets/exams/NVR1/1.jpg",
          "imageMobile": "src/assets/exams/NVR1/1.jpg",
          "type": "multipleChoice",
          "options": ["a", "b", "c", "d", "e"]
        },
        {
          "number": 2,
          "textExtract": "",
          "primaryInstruction": "For each question below there are two figures that are like each other in some way. Find which of the five figures on the right is most like the two figures on the left.", 
          "secondaryInstruction": "Choose one:",
          "image": "src/assets/exams/NVR1/2.jpg",
          "imageMobile": "src/assets/exams/NVR1/2.jpg",
          "type": "multipleChoice",
          "options": ["a", "b", "c", "d", "e"]
        },
        {
          "number": 3,
          "textExtract": "",
          "primaryInstruction": "For each question below there are two figures that are like each other in some way. Find which of the five figures on the right is most like the two figures on the left.", 
          "secondaryInstruction": "Choose one:",
          "image": "src/assets/exams/NVR1/3.jpg",
          "imageMobile": "src/assets/exams/NVR1/3.jpg",
          "type": "multipleChoice",
          "options": ["a", "b", "c", "d", "e"]
        }
      ],
      "answers": [
        {
          "number": 1,
          "answer": "b",
          "explanation": "Both of the example figures are triangles with a flat side at the bottom, only B matches these features!"
        },
        {
          "number": 2,
          "answer": "c",
          "explanation": "The chosen figure must have the same number of inside lines as it does dots, therefore it is C!"
        },
        {
          "number": 3,
          "answer": "d",
          "explanation": "A black shape must be found at the front!"
        }
      ]
    }
  ]
}